"VertexLitGeneric"
{
	"$basetexture"			"models\weapons\v_models\thanez_357\v_357_d"
	"$bumpmap"			"models\weapons\v_models\thanez_357\v_357_n"
	"$phongexponenttexture"		"models\weapons\v_models\thanez_357\v_357_e"
	"$basetexturealphaenvmapmask"	"1"
	"$envmap"			"env_cubemap"
	"$envmaptint"			"[1.4 1.4 1.4]"
	"$envmapfresnel"			"1.4"
	"$nocull"				"1"

	"$phong"				"1"
	"$phongboost"			"1.5"
	"$phongfresnelranges"		"[1 3 4]"
//	"$phongalbedotint"			"1"
//	"$phongalbedoboost"		"1"
	"$halflambert"			"1"

	"$rimlight"			"1"
	"$rimlightexponent"			"100"
	"$rimlightboost"			".5"
	"$rimmask"			"1"
}
