"VertexLitGeneric"
{
	"$basetexture"			"models\weapons\v_models\thanez_357\v_speedy_d"
	"$bumpmap"			"models\weapons\v_models\thanez_357\v_speedy_n"
	"$phongexponenttexture"		"models\weapons\v_models\thanez_357\v_speedy_e"
	"$basetexturealphaenvmapmask"	"1"
	"$envmap"			"env_cubemap"
	"$envmaptint"			"[0.2 0.2 0.2]"
	"$envmapfresnel"			"0.2"
	"$nocull"				"1"

	"$phong"				"1"
	"$phongboost"			"2"
	"$phongfresnelranges"		"[1 4 6]"
//	"$phongalbedotint"			"1"
//	"$phongalbedoboost"		"1"
	"$halflambert"			"1"

	"$rimlight"			"1"
	"$rimlightexponent"			"100"
	"$rimlightboost"			"1.5"
	"$rimmask"			"1"
}

