"Vertexlitgeneric"
{
"$basetexture"            	"models/weapons/v_models/m1a1/weapon_m1a1_dm"
"$bumpmap"	                "models/weapons/v_models/m1a1/weapon_m1a1_nm"
	
	
	$phong 					"1"	
	$phongtint 				"[.67 .85 1]"
	$phongexponent 			"45"
	$phongboost 			"0.3"
	$phongfresnelranges		"[.5 1 3]"

}