"VertexlitGeneric"
{
	"$basetexture" 	"models\weapons\v_models\Millenia_M4\EOTech_d"
	"$bumpmap" 	"models\weapons\v_models\Millenia_M4\EOTech_n"
	"$phongexponenttexture" "models\weapons\v_models\Millenia_M4\EOTech_s"
	"$nocull" "1"

	"$phong"                      "1"
	"$phongboost"                 "0.15"
	"$phongexponent"		"35"
	"$phongfresnelranges"         "[5 10 10]"
	"$phongtint"		      "[1 0.9 0.9]"
	"$phongalbedotint"            "1"
	"$phongalbedoboost"           "145"

	"$envmap"                     "env_cubemap"
	"$envmaptint"                 "[.035 .035 .055]"
	"$halflambert"                "1"
	"$normalmapalphaenvmapmask"	"1"


}