"VertexLitGeneric"
{
	"$basetexture"	"models\weapons\v_models\r700\optic_lense"
	"$bumpmap"	"models\weapons\v_models\r700\optic_lense_nm"
	"normalmapalphaenvmapmask"	"1"
	"$model" 		"1"
	"$translucent" 	"1"
	"$phong"		"1"
	"$envmap" 	"env_cubemap"
	"$envmapcontrast" 	".8"
	"$envmapsaturation" "1"
	"$envmaptint" 	"[0.7 0.5 0.8]"	
	"$PhongDisableHalfLambert"	"1"
}