"vertexlitgeneric"
{
	"$basetexture" "models\weapons\v_models\vad36fr3\Fire"
	"$bumpmap" "models\weapons\v_models\vad36fr3\Fire_n"
	"$phong" "1"
	"$phongexponent" "10"
	"$phongboost" "0.5"	
	"$phongfresnelranges"	"[1 3 6]"
    "$halflambert" "1"
	"$phongalbedotint" "1"
}