"UnlitGeneric"
{
	"$basetexture"	"models\weapons\v_models\R700\mosin_lense"
	"$model" "1"
	"$nocull" 	"1"
	"$envmap" 	"env_cubemap"
	"$envmapmask" 	"models\weapons\v_models\R700\mosin_lense_spec"
	"$translucent" 	"0"
	"$envmaptint" 				"[.25 .25 .25]"
	"$phong" 					"1"
	"$phongexponent"			"10"
	"$phongboost" 				"5"	
	"$phongfresnelranges"		"[1 5 3]"
}